VnCcode/transmitting.vcd
$date
	Mon Feb 22 14:47:32 2016
$end
$version
	Icarus Verilog
$end
$timescale
	1s
$end
$scope module transmitting_testbench $end
$scope module transmitting_test $end
$var wire 1 ! SRclk $end
$var wire 4 " bitID [3:0] $end
$var wire 4 # bitSample [3:0] $end
$var wire 1 $ buffer_in $end
$var wire 1 % buffer_out $end
$var wire 1 & charSent $end
$var wire 1 ' characterSent $end
$var wire 1 ( clk $end
$var wire 10 ) data_in [9:0] $end
$var wire 1 * data_out $end
$var wire 1 + enable $end
$var wire 1 , load_n $end
$var wire 1 - reset $end
$var wire 1 . t_enable $end
$upscope $end
$upscope $end
$enddefinitions $end
#0
$dumpvars
x.
x-
x,
x+
x*
bx )
x(
0'
0&
x%
x$
b0 #
b0 "
0!
$end
#20
0-
1(
#30
0(
#40
0+
1%
1(
1-
#50
0(
#60
x%
1(
0-
#70
0(
#80
1+
1(
0.
#90
0(
#100
1(
#110
0(
#120
b1 #
1(
#130
0(
#140
b10 #
1(
#150
0(
#160
b11 #
1(
#170
0(
#180
b100 #
1(
#190
0(
#200
b101 #
1(
#210
0(
#220
b110 #
1(
#230
0(
#240
1$
1*
1!
b111 #
1(
#250
0(
#260
1%
0!
b1000 #
1(
#270
0(
#280
b1001 #
1(
#290
0(
#300
b1010 #
1(
#310
0(
#320
b1011 #
1(
#330
0(
#340
b1100 #
1(
#350
0(
#360
b1101 #
1(
#370
0(
#380
b1110 #
1(
#390
0(
#400
b1111 #
1(
1,
1.
b110100101 )
#410
0(
#420
b0 #
b1 "
1(
#430
0(
#440
b1 #
1(
#450
0(
#460
b10 #
1(
#470
0(
#480
b11 #
1(
#490
0(
#500
b100 #
1(
#510
0(
#520
b101 #
1(
#530
0(
#540
b110 #
1(
#550
0(
#560
0$
0*
1!
b111 #
1(
#570
0(
#580
0%
0!
b1000 #
1(
#590
0(
#600
b1001 #
1(
#610
0(
#620
b1010 #
1(
#630
0(
#640
b1011 #
1(
#650
0(
#660
b1100 #
1(
#670
0(
#680
b1101 #
1(
#690
0(
#700
b1110 #
1(
#710
0(
#720
b1111 #
1(
0,
#730
0(
#740
b0 #
b10 "
1(
#750
0(
#760
b1 #
1(
#770
0(
#780
b10 #
1(
#790
0(
#800
b11 #
1(
#810
0(
#820
b100 #
1(
#830
0(
#840
b101 #
1(
#850
0(
#860
b110 #
1(
#870
0(
#880
1$
1*
1!
b111 #
1(
#890
0(
#900
1%
0!
b1000 #
1(
#910
0(
#920
b1001 #
1(
#930
0(
#940
b1010 #
1(
#950
0(
#960
b1011 #
1(
#970
0(
#980
b1100 #
1(
#990
0(
#1000
b1101 #
1(
#1010
0(
#1020
b1110 #
1(
#1030
0(
#1040
b1111 #
1(
#1050
0(
#1060
b0 #
b11 "
1(
#1070
0(
#1080
b1 #
1(
#1090
0(
#1100
b10 #
1(
#1110
0(
#1120
b11 #
1(
#1130
0(
#1140
b100 #
1(
#1150
0(
#1160
b101 #
1(
#1170
0(
#1180
b110 #
1(
#1190
0(
#1200
1!
b111 #
1(
#1210
0(
#1220
0!
b1000 #
1(
#1230
0(
#1240
b1001 #
1(
#1250
0(
#1260
b1010 #
1(
#1270
0(
#1280
b1011 #
1(
#1290
0(
#1300
b1100 #
1(
#1310
0(
#1320
b1101 #
1(
#1330
0(
#1340
b1110 #
1(
#1350
0(
#1360
b1111 #
1(
#1370
0(
#1380
b0 #
b100 "
1(
#1390
0(
#1400
b1 #
1(
#1410
0(
#1420
b10 #
1(
#1430
0(
#1440
b11 #
1(
#1450
0(
#1460
b100 #
1(
#1470
0(
#1480
b101 #
1(
#1490
0(
#1500
b110 #
1(
#1510
0(
#1520
0$
0*
1!
b111 #
1(
#1530
0(
#1540
0%
0!
b1000 #
1(
#1550
0(
#1560
b1001 #
1(
#1570
0(
#1580
b1010 #
1(
#1590
0(
#1600
b1011 #
1(
#1610
0(
#1620
b1100 #
1(
#1630
0(
#1640
b1101 #
1(
#1650
0(
#1660
b1110 #
1(
#1670
0(
#1680
b1111 #
1(
#1690
0(
#1700
b0 #
b101 "
1(
#1710
0(
#1720
b1 #
1(
#1730
0(
#1740
b10 #
1(
#1750
0(
#1760
b11 #
1(
#1770
0(
#1780
b100 #
1(
#1790
0(
#1800
b101 #
1(
#1810
0(
#1820
b110 #
1(
#1830
0(
#1840
1$
1*
1!
b111 #
1(
#1850
0(
#1860
1%
0!
b1000 #
1(
#1870
0(
#1880
b1001 #
1(
#1890
0(
#1900
b1010 #
1(
#1910
0(
#1920
b1011 #
1(
#1930
0(
#1940
b1100 #
1(
#1950
0(
#1960
b1101 #
1(
#1970
0(
#1980
b1110 #
1(
#1990
0(
#2000
b1111 #
1(
#2010
0(
#2020
b0 #
b110 "
1(
#2030
0(
#2040
b1 #
1(
#2050
0(
#2060
b10 #
1(
#2070
0(
#2080
b11 #
1(
#2090
0(
#2100
b100 #
1(
#2110
0(
#2120
b101 #
1(
#2130
0(
#2140
b110 #
1(
#2150
0(
#2160
0$
0*
1!
b111 #
1(
#2170
0(
#2180
0%
0!
b1000 #
1(
#2190
0(
#2200
b1001 #
1(
#2210
0(
#2220
b1010 #
1(
#2230
0(
#2240
b1011 #
1(
#2250
0(
#2260
b1100 #
1(
#2270
0(
#2280
b1101 #
1(
#2290
0(
#2300
b1110 #
1(
#2310
0(
#2320
b1111 #
1(
#2330
0(
#2340
b0 #
b111 "
1(
#2350
0(
#2360
b1 #
1(
#2370
0(
#2380
b10 #
1(
#2390
0(
#2400
b11 #
1(
#2410
0(
#2420
b100 #
1(
#2430
0(
#2440
b101 #
1(
#2450
0(
#2460
b110 #
1(
#2470
0(
#2480
1!
b111 #
1(
#2490
0(
#2500
0!
b1000 #
1(
#2510
0(
#2520
b1001 #
1(
#2530
0(
#2540
b1010 #
1(
#2550
0(
#2560
b1011 #
1(
#2570
0(
#2580
b1100 #
1(
#2590
0(
#2600
b1101 #
1(
#2610
0(
#2620
b1110 #
1(
#2630
0(
#2640
b1111 #
1(
#2650
0(
#2660
b0 #
b1000 "
1(
#2670
0(
#2680
b1 #
1(
#2690
0(
#2700
b10 #
1(
#2710
0(
#2720
b11 #
1(
#2730
0(
#2740
b100 #
1(
#2750
0(
#2760
b101 #
1(
#2770
0(
#2780
b110 #
1(
#2790
0(
#2800
1$
1*
1!
b111 #
1(
#2810
0(
#2820
1%
0!
b1000 #
1(
#2830
0(
#2840
b1001 #
1(
#2850
0(
#2860
b1010 #
1(
#2870
0(
#2880
b1011 #
1(
#2890
0(
#2900
b1100 #
1(
#2910
0(
#2920
b1101 #
1(
#2930
0(
#2940
b1110 #
1(
#2950
0(
#2960
b1111 #
1(
#2970
0(
#2980
b0 #
b1001 "
1(
#2990
0(
#3000
b1 #
1(
#3010
0(
#3020
b10 #
1(
#3030
0(
#3040
b11 #
1(
#3050
0(
#3060
b100 #
1(
#3070
0(
#3080
b101 #
1(
#3090
0(
#3100
b110 #
1(
#3110
0(
#3120
0$
0*
1!
b111 #
1(
#3130
0(
#3140
0%
0!
b1000 #
1(
#3150
0(
#3160
b1001 #
1(
#3170
0(
#3180
b1010 #
1(
#3190
0(
#3200
b1011 #
1(
#3210
0(
#3220
b1100 #
1(
#3230
0(
#3240
b1101 #
1(
#3250
0(
#3260
b1110 #
1(
#3270
0(
#3280
b1111 #
1(
#3290
0(
#3300
b0 #
b1010 "
1(
#3310
0(
#3320
b1 #
1(
#3330
0(
#3340
b10 #
1(
#3350
0(
#3360
b11 #
1(
#3370
0(
#3380
b100 #
1(
#3390
0(
#3400
b101 #
1(
#3410
0(
#3420
b110 #
1(
#3430
0(
#3440
1$
1*
1!
b111 #
1(
#3450
0(
#3460
1%
1'
1&
0!
b1000 #
1(
#3470
0(
#3480
0+
0'
0&
b1001 #
1(
#3490
0(
#3500
b1010 #
1(
#3510
0(
#3520
b0 #
b0 "
1(
