Microprocessor/sram.vcd
$date
	Fri Feb 12 01:20:34 2016
$end
$version
	Icarus Verilog
$end
$timescale
	1s
$end
$scope module testBench $end
$scope module sram1 $end
$var wire 8 ! data [7:0] $end
$var wire 1 " readWrite $end
$var wire 1 # enable $end
$var wire 11 $ address [10:0] $end
$var reg 8 % data1 [7:0] $end
$upscope $end
$upscope $end
$enddefinitions $end
#0
$dumpvars
bx %
b0 $
0#
0"
bz !
$end
#140
b1111111 !
bz %
1"
#200
bx %
bx !
b1 $
#240
bz !
0"
#300
b1111110 !
bz %
1"
#360
bx %
bx !
b10 $
#400
bz !
0"
#460
b1111101 !
bz %
1"
#520
bx %
bx !
b11 $
#560
bz !
0"
#620
b1111100 !
bz %
1"
#680
bx %
bx !
b100 $
#720
bz !
0"
#780
b1111011 !
bz %
1"
#840
bx %
bx !
b101 $
#880
bz !
0"
#940
b1111010 !
bz %
1"
#1000
bx %
bx !
b110 $
#1040
bz !
0"
#1100
b1111001 !
bz %
1"
#1160
bx %
bx !
b111 $
#1200
bz !
0"
#1260
b1111000 !
bz %
1"
#1320
bx %
bx !
b1000 $
#1360
bz !
0"
#1420
b1110111 !
bz %
1"
#1480
bx %
bx !
b1001 $
#1520
bz !
0"
#1580
b1110110 !
bz %
1"
#1640
bx %
bx !
b1010 $
#1680
bz !
0"
#1740
b1110101 !
bz %
1"
#1800
bx %
bx !
b1011 $
#1840
bz !
0"
#1900
b1110100 !
bz %
1"
#1960
bx %
bx !
b1100 $
#2000
bz !
0"
#2060
b1110011 !
bz %
1"
#2120
bx %
bx !
b1101 $
#2160
bz !
0"
#2220
b1110010 !
bz %
1"
#2280
bx %
bx !
b1110 $
#2320
bz !
0"
#2380
b1110001 !
bz %
1"
#2440
bx %
bx !
b1111 $
#2480
bz !
0"
#2540
b1110000 !
bz %
1"
#2600
bx %
bx !
b10000 $
#2640
bz !
0"
#2700
b1101111 !
bz %
1"
#2760
bx %
bx !
b10001 $
#2800
bz !
0"
#2860
b1101110 !
bz %
1"
#2920
bx %
bx !
b10010 $
#2960
bz !
0"
#3020
b1101101 !
bz %
1"
#3080
bx %
bx !
b10011 $
#3120
bz !
0"
#3180
b1101100 !
bz %
1"
#3240
bx %
bx !
b10100 $
#3280
bz !
0"
#3340
b1101011 !
bz %
1"
#3400
bx %
bx !
b10101 $
#3440
bz !
0"
#3500
b1101010 !
bz %
1"
#3560
bx %
bx !
b10110 $
#3600
bz !
0"
#3660
b1101001 !
bz %
1"
#3720
bx %
bx !
b10111 $
#3760
bz !
0"
#3820
b1101000 !
bz %
1"
#3880
bx %
bx !
b11000 $
#3920
bz !
0"
#3980
b1100111 !
bz %
1"
#4040
bx %
bx !
b11001 $
#4080
bz !
0"
#4140
b1100110 !
bz %
1"
#4200
bx %
bx !
b11010 $
#4240
bz !
0"
#4300
b1100101 !
bz %
1"
#4360
bx %
bx !
b11011 $
#4400
bz !
0"
#4460
b1100100 !
bz %
1"
#4520
bx %
bx !
b11100 $
#4560
bz !
0"
#4620
b1100011 !
bz %
1"
#4680
bx %
bx !
b11101 $
#4720
bz !
0"
#4780
b1100010 !
bz %
1"
#4840
bx %
bx !
b11110 $
#4880
bz !
0"
#4940
b1100001 !
bz %
1"
#5000
bx %
bx !
b11111 $
#5040
bz !
0"
#5100
b1100000 !
bz %
1"
#5160
bx %
bx !
b100000 $
#5200
bz !
0"
#5260
b1011111 !
bz %
1"
#5320
bx %
bx !
b100001 $
#5360
bz !
0"
#5420
b1011110 !
bz %
1"
#5480
bx %
bx !
b100010 $
#5520
bz !
0"
#5580
b1011101 !
bz %
1"
#5640
bx %
bx !
b100011 $
#5680
bz !
0"
#5740
b1011100 !
bz %
1"
#5800
bx %
bx !
b100100 $
#5840
bz !
0"
#5900
b1011011 !
bz %
1"
#5960
bx %
bx !
b100101 $
#6000
bz !
0"
#6060
b1011010 !
bz %
1"
#6120
bx %
bx !
b100110 $
#6160
bz !
0"
#6220
b1011001 !
bz %
1"
#6280
bx %
bx !
b100111 $
#6320
bz !
0"
#6380
b1011000 !
bz %
1"
#6440
bx %
bx !
b101000 $
#6480
bz !
0"
#6540
b1010111 !
bz %
1"
#6600
bx %
bx !
b101001 $
#6640
bz !
0"
#6700
b1010110 !
bz %
1"
#6760
bx %
bx !
b101010 $
#6800
bz !
0"
#6860
b1010101 !
bz %
1"
#6920
bx %
bx !
b101011 $
#6960
bz !
0"
#7020
b1010100 !
bz %
1"
#7080
bx %
bx !
b101100 $
#7120
bz !
0"
#7180
b1010011 !
bz %
1"
#7240
bx %
bx !
b101101 $
#7280
bz !
0"
#7340
b1010010 !
bz %
1"
#7400
bx %
bx !
b101110 $
#7440
bz !
0"
#7500
b1010001 !
bz %
1"
#7560
bx %
bx !
b101111 $
#7600
bz !
0"
#7660
b1010000 !
bz %
1"
#7720
bx %
bx !
b110000 $
#7760
bz !
0"
#7820
b1001111 !
bz %
1"
#7880
bx %
bx !
b110001 $
#7920
bz !
0"
#7980
b1001110 !
bz %
1"
#8040
bx %
bx !
b110010 $
#8080
bz !
0"
#8140
b1001101 !
bz %
1"
#8200
bx %
bx !
b110011 $
#8240
bz !
0"
#8300
b1001100 !
bz %
1"
#8360
bx %
bx !
b110100 $
#8400
bz !
0"
#8460
b1001011 !
bz %
1"
#8520
bx %
bx !
b110101 $
#8560
bz !
0"
#8620
b1001010 !
bz %
1"
#8680
bx %
bx !
b110110 $
#8720
bz !
0"
#8780
b1001001 !
bz %
1"
#8840
bx %
bx !
b110111 $
#8880
bz !
0"
#8940
b1001000 !
bz %
1"
#9000
bx %
bx !
b111000 $
#9040
bz !
0"
#9100
b1000111 !
bz %
1"
#9160
bx %
bx !
b111001 $
#9200
bz !
0"
#9260
b1000110 !
bz %
1"
#9320
bx %
bx !
b111010 $
#9360
bz !
0"
#9420
b1000101 !
bz %
1"
#9480
bx %
bx !
b111011 $
#9520
bz !
0"
#9580
b1000100 !
bz %
1"
#9640
bx %
bx !
b111100 $
#9680
bz !
0"
#9740
b1000011 !
bz %
1"
#9800
bx %
bx !
b111101 $
#9840
bz !
0"
#9900
b1000010 !
bz %
1"
#9960
bx %
bx !
b111110 $
#10000
bz !
0"
#10060
b1000001 !
bz %
1"
#10120
bx %
bx !
b111111 $
#10160
bz !
0"
#10220
b1000000 !
bz %
1"
#10280
bx %
bx !
b1000000 $
#10320
bz !
0"
#10380
b111111 !
bz %
1"
#10440
bx %
bx !
b1000001 $
#10480
bz !
0"
#10540
b111110 !
bz %
1"
#10600
bx %
bx !
b1000010 $
#10640
bz !
0"
#10700
b111101 !
bz %
1"
#10760
bx %
bx !
b1000011 $
#10800
bz !
0"
#10860
b111100 !
bz %
1"
#10920
bx %
bx !
b1000100 $
#10960
bz !
0"
#11020
b111011 !
bz %
1"
#11080
bx %
bx !
b1000101 $
#11120
bz !
0"
#11180
b111010 !
bz %
1"
#11240
bx %
bx !
b1000110 $
#11280
bz !
0"
#11340
b111001 !
bz %
1"
#11400
bx %
bx !
b1000111 $
#11440
bz !
0"
#11500
b111000 !
bz %
1"
#11560
bx %
bx !
b1001000 $
#11600
bz !
0"
#11660
b110111 !
bz %
1"
#11720
bx %
bx !
b1001001 $
#11760
bz !
0"
#11820
b110110 !
bz %
1"
#11880
bx %
bx !
b1001010 $
#11920
bz !
0"
#11980
b110101 !
bz %
1"
#12040
bx %
bx !
b1001011 $
#12080
bz !
0"
#12140
b110100 !
bz %
1"
#12200
bx %
bx !
b1001100 $
#12240
bz !
0"
#12300
b110011 !
bz %
1"
#12360
bx %
bx !
b1001101 $
#12400
bz !
0"
#12460
b110010 !
bz %
1"
#12520
bx %
bx !
b1001110 $
#12560
bz !
0"
#12620
b110001 !
bz %
1"
#12680
bx %
bx !
b1001111 $
#12720
bz !
0"
#12780
b110000 !
bz %
1"
#12840
bx %
bx !
b1010000 $
#12880
bz !
0"
#12940
b101111 !
bz %
1"
#13000
bx %
bx !
b1010001 $
#13040
bz !
0"
#13100
b101110 !
bz %
1"
#13160
bx %
bx !
b1010010 $
#13200
bz !
0"
#13260
b101101 !
bz %
1"
#13320
bx %
bx !
b1010011 $
#13360
bz !
0"
#13420
b101100 !
bz %
1"
#13480
bx %
bx !
b1010100 $
#13520
bz !
0"
#13580
b101011 !
bz %
1"
#13640
bx %
bx !
b1010101 $
#13680
bz !
0"
#13740
b101010 !
bz %
1"
#13800
bx %
bx !
b1010110 $
#13840
bz !
0"
#13900
b101001 !
bz %
1"
#13960
bx %
bx !
b1010111 $
#14000
bz !
0"
#14060
b101000 !
bz %
1"
#14120
bx %
bx !
b1011000 $
#14160
bz !
0"
#14220
b100111 !
bz %
1"
#14280
bx %
bx !
b1011001 $
#14320
bz !
0"
#14380
b100110 !
bz %
1"
#14440
bx %
bx !
b1011010 $
#14480
bz !
0"
#14540
b100101 !
bz %
1"
#14600
bx %
bx !
b1011011 $
#14640
bz !
0"
#14700
b100100 !
bz %
1"
#14760
bx %
bx !
b1011100 $
#14800
bz !
0"
#14860
b100011 !
bz %
1"
#14920
bx %
bx !
b1011101 $
#14960
bz !
0"
#15020
b100010 !
bz %
1"
#15080
bx %
bx !
b1011110 $
#15120
bz !
0"
#15180
b100001 !
bz %
1"
#15240
bx %
bx !
b1011111 $
#15280
bz !
0"
#15340
b100000 !
bz %
1"
#15400
bx %
bx !
b1100000 $
#15440
bz !
0"
#15500
b11111 !
bz %
1"
#15560
bx %
bx !
b1100001 $
#15600
bz !
0"
#15660
b11110 !
bz %
1"
#15720
bx %
bx !
b1100010 $
#15760
bz !
0"
#15820
b11101 !
bz %
1"
#15880
bx %
bx !
b1100011 $
#15920
bz !
0"
#15980
b11100 !
bz %
1"
#16040
bx %
bx !
b1100100 $
#16080
bz !
0"
#16140
b11011 !
bz %
1"
#16200
bx %
bx !
b1100101 $
#16240
bz !
0"
#16300
b11010 !
bz %
1"
#16360
bx %
bx !
b1100110 $
#16400
bz !
0"
#16460
b11001 !
bz %
1"
#16520
bx %
bx !
b1100111 $
#16560
bz !
0"
#16620
b11000 !
bz %
1"
#16680
bx %
bx !
b1101000 $
#16720
bz !
0"
#16780
b10111 !
bz %
1"
#16840
bx %
bx !
b1101001 $
#16880
bz !
0"
#16940
b10110 !
bz %
1"
#17000
bx %
bx !
b1101010 $
#17040
bz !
0"
#17100
b10101 !
bz %
1"
#17160
bx %
bx !
b1101011 $
#17200
bz !
0"
#17260
b10100 !
bz %
1"
#17320
bx %
bx !
b1101100 $
#17360
bz !
0"
#17420
b10011 !
bz %
1"
#17480
bx %
bx !
b1101101 $
#17520
bz !
0"
#17580
b10010 !
bz %
1"
#17640
bx %
bx !
b1101110 $
#17680
bz !
0"
#17740
b10001 !
bz %
1"
#17800
bx %
bx !
b1101111 $
#17840
bz !
0"
#17900
b10000 !
bz %
1"
#17960
bx %
bx !
b1110000 $
#18000
bz !
0"
#18060
b1111 !
bz %
1"
#18120
bx %
bx !
b1110001 $
#18160
bz !
0"
#18220
b1110 !
bz %
1"
#18280
bx %
bx !
b1110010 $
#18320
bz !
0"
#18380
b1101 !
bz %
1"
#18440
bx %
bx !
b1110011 $
#18480
bz !
0"
#18540
b1100 !
bz %
1"
#18600
bx %
bx !
b1110100 $
#18640
bz !
0"
#18700
b1011 !
bz %
1"
#18760
bx %
bx !
b1110101 $
#18800
bz !
0"
#18860
b1010 !
bz %
1"
#18920
bx %
bx !
b1110110 $
#18960
bz !
0"
#19020
b1001 !
bz %
1"
#19080
bx %
bx !
b1110111 $
#19120
bz !
0"
#19180
b1000 !
bz %
1"
#19240
bx %
bx !
b1111000 $
#19280
bz !
0"
#19340
b111 !
bz %
1"
#19400
bx %
bx !
b1111001 $
#19440
bz !
0"
#19500
b110 !
bz %
1"
#19560
bx %
bx !
b1111010 $
#19600
bz !
0"
#19660
b101 !
bz %
1"
#19720
bx %
bx !
b1111011 $
#19760
bz !
0"
#19820
b100 !
bz %
1"
#19880
bx %
bx !
b1111100 $
#19920
bz !
0"
#19980
b11 !
bz %
1"
#20040
bx %
bx !
b1111101 $
#20080
bz !
0"
#20140
b10 !
bz %
1"
#20200
bx %
bx !
b1111110 $
#20240
bz !
0"
#20300
b1 !
bz %
1"
#20360
bx %
bx !
b1111111 $
#20400
bz !
0"
#20460
b0 !
bz %
1"
