Microprocessor/startBitFile.vcd
$date
	Sat Feb 20 14:32:13 2016
$end
$version
	Icarus Verilog
$end
$timescale
	1s
$end
$scope module testBench $end
$var wire 1 ! reset $end
$var wire 1 " enable $end
$var wire 1 # clk $end
$var wire 1 $ bitStream $end
$var wire 4 % BSC [3:0] $end
$var wire 4 & BIC [3:0] $end
$upscope $end
$enddefinitions $end
#0
$dumpvars
bx &
bx %
x$
x#
x"
x!
$end
#20
1$
1#
#40
b0 %
b0 &
0!
0#
#60
0"
1!
1#
#80
0!
0#
#100
1#
#120
0#
#140
1#
#160
0#
#180
1#
#200
0#
0$
#220
1"
1#
#240
0#
#260
1#
#280
0#
#300
1#
#320
0#
1$
#340
1#
#360
0#
#380
1#
#400
0#
#420
1#
#440
0#
b1111 %
b1001 &
#460
0"
1#
#480
0#
#500
1#
b0 &
